{
  "parent": "largepaintings:block/canvas_block",
  "textures": {
    "painting": "largepaintings:block/painting_4"
  },
  "elements": [
    {
      "from": [
        0,
        0,
        0
      ],
      "to": [
        16,
        16,
        1
      ],
      "faces": {
        "down": {
          "texture": "#canvas_block",
          "cullface": "down"
        },
        "up": {
          "texture": "#canvas_block",
          "cullface": "up"
        },
        "north": {
          "texture": "#canvas_block",
          "cullface": "north"
        },
        "south": {
          "texture": "#painting",
          "uv": [
            10.0,
            8.0,
            12.0,
            10.0
          ]
        },
        "west": {
          "texture": "#canvas_block",
          "cullface": "west"
        },
        "east": {
          "texture": "#canvas_block",
          "cullface": "east"
        }
      }
    }
  ]
}